"Epic","Feature","Story","FAILED","BROKEN","PASSED","SKIPPED","UNKNOWN"
"","Engagement Dashboard Feature","Check engagement titles are displayed correct without filters applied","0","0","1","0","0"
"","Engagement Dashboard Feature","Check all columns are displayed on the Engagement Dashboard page","0","0","1","0","0"
"","Login Feature","Check login is successful with valid credentials","0","0","1","0","0"
