launch_status failed=0 1710513824000000000
launch_status broken=0 1710513824000000000
launch_status passed=3 1710513824000000000
launch_status skipped=0 1710513824000000000
launch_status unknown=0 1710513824000000000
launch_time duration=31503 1710513824000000000
launch_time min_duration=6804 1710513824000000000
launch_time max_duration=14737 1710513824000000000
launch_time sum_duration=31446 1710513824000000000
launch_retries retries=0 1710513824000000000
launch_retries run=3 1710513824000000000
